%YAML 1.1
%TAG !u! tag:unity3d.com,2011:
--- !u!114 &11400000
MonoBehaviour:
  m_ObjectHideFlags: 0
  m_CorrespondingSourceObject: {fileID: 0}
  m_PrefabInstance: {fileID: 0}
  m_PrefabAsset: {fileID: 0}
  m_GameObject: {fileID: 0}
  m_Enabled: 1
  m_EditorHideFlags: 0
  m_Script: {fileID: 11500000, guid: e651dbb3fbac04af2b8f5abf007ddc23, type: 3}
  m_Name: NetworkPrefabsList
  m_EditorClassIdentifier: 
  IsDefault: 0
  List:
  - Override: 0
    Prefab: {fileID: 3178198668869363718, guid: ab80f5853dcd87744b17ed9232be8b21, type: 3}
    SourcePrefabToOverride: {fileID: 0}
    SourceHashToOverride: 0
    OverridingTargetPrefab: {fileID: 0}
  - Override: 0
    Prefab: {fileID: 4785720467220307054, guid: bfdf5fe573831564da904f37130ed554, type: 3}
    SourcePrefabToOverride: {fileID: 0}
    SourceHashToOverride: 0
    OverridingTargetPrefab: {fileID: 0}
  - Override: 0
    Prefab: {fileID: 5252848935122284897, guid: 694fdda768f7c464295f87c2745d416f, type: 3}
    SourcePrefabToOverride: {fileID: 0}
    SourceHashToOverride: 0
    OverridingTargetPrefab: {fileID: 0}
  - Override: 0
    Prefab: {fileID: 6879659744669990660, guid: 1744d05c65e90a64eb3e8936596a1bda, type: 3}
    SourcePrefabToOverride: {fileID: 0}
    SourceHashToOverride: 0
    OverridingTargetPrefab: {fileID: 0}
  - Override: 0
    Prefab: {fileID: 3401531794882347796, guid: e3637b33b3c01de4aa209163d1f25122, type: 3}
    SourcePrefabToOverride: {fileID: 0}
    SourceHashToOverride: 0
    OverridingTargetPrefab: {fileID: 0}
  - Override: 0
    Prefab: {fileID: 1128566708470725085, guid: 2696c0f18e3be5b4b929a8cb7fb415f2, type: 3}
    SourcePrefabToOverride: {fileID: 0}
    SourceHashToOverride: 0
    OverridingTargetPrefab: {fileID: 0}
